Human activity recognition on Weigth Lifting Exercices Dataset
…
Figure 1

training<-training[,-c(2,3)]

Concerning the num_window variable, although not evident from the plot, during model selection it turned out to be a perfect predictor when using the Random Forest method: in fact, it can alone predict with accuracy=1 all the data points in the training dataset. This indicates that, in a given window, only one type of exercise was performed, as one can verify with the tibble produced by the code below. So, this variable has to be removed if we want to obtain a meaningful model, telling us something about the relationship between the sensor measurements and the correctness of the exercise.

group_by(training, num_window) %>% summarize(classes=unique(classe))

## # A tibble: 858 x 2
##    num_window classes
##  *      <int> <fct>  
##  1          1 E      
##  2          2 E      
##  3          3 E      
##  4          4 E      
##  5          5 E      
##  6          6 E      
##  7          7 E      
##  8          8 E      
##  9          9 E      
## 10         10 E      
## # ... with 848 more rows
…
